[
  {
    "id": 0,
    "name": "Participant 1",
    "image": "https://img.piku.co.kr/w/uploads/1fEIua/b15bcbc51a2271cf3c3a725787457ea3.jpg",
    "score": 0
  },
  {
    "id": 1,
    "name": "Participant 2",
    "image": "https://img.piku.co.kr/w/uploads/1fEIua/37443f594f2e841fa67b53014e740eb1.jpg",
    "score": 0
  },
  {
    "id": 2,
    "name": "Participant 3",
    "image": "https://img.piku.co.kr/w/uploads/aIC9L9/f117f8427a4d4c69de52e43d57e35570.jpg",
    "score": 0
  },
  {
    "id": 3,
    "name": "Participant 4",
    "image": "https://img.piku.co.kr/w/uploads/5u2qx2/a65d4022f45634603398fd6e8f823520.jpg",
    "score": 0
  },
  {
    "id": 4,
    "name": "Participant 5",
    "image": "https://img.piku.co.kr/w/uploads/aIC9L9/0b0576f2573ca7b21c886cb717b9684e.jpg",
    "score": 0
  },
  {
    "id": 5,
    "name": "Participant 6",
    "image": "https://img.piku.co.kr/w/uploads/aIC9L9/e2a5507e692b476acccf7613419f53b3.jpg",
    "score": 0
  },
  {
    "id": 6,
    "name": "Participant 7",
    "image": "https://img.piku.co.kr/w/uploads/aIC9L9/1d7cb19d9335c5e8b12f8a037366ffb1.jpg",
    "score": 0
  },
  {
    "id": 7,
    "name": "Participant 8",
    "image": "https://img.piku.co.kr/w/uploads/aIC9L9/b92ac18ed19a32cd2f836ca4dfee2762.jpg",
    "score": 0
  }
]
